Error analysis
…
wapsVarImportance <- RFvarImpBuilding$WAPS
#Select only those WAPS with VarImp in the Validation Set
wifidataValRFvarImpBuilding <- wifidataVal %>% select(wapsVarImportance, 521:526)

#Identify the Rows where a particular WAP has intensity different to 100 and summarize
wifidataValRFvarImpSummarized <- wifidataValRFvarImpBuilding  %>%
 gather( "WAPS", "Value", 1:55)  %>%filter(Value<100)  %>%group_by(WAPS) %>% summarise(
meanRRSSI=mean(Value), sdRRSSI=sd(Value), minRRSSI=min(Value), maxRRSSI=max(Value), n_distinct(Value)) %>% left_join( RFvarImpBuilding, by="WAPS")

#meanLat=mean(RealLatitude), minLat=min(RealLatitude), maxLat=max(RealLatitude), meanLong=mean(RealLongitude), minLong=min(RealLongitude),  maxLong=max(RealLongitude), meanFloor=mean(as.numeric(RealFloor)), meanBuild=mean(as.numeric(RealBuildingId)),minBuild=min(as.numeric(RealBuildingId)),maxBuild=max(as.numeric(RealBuildingId)),minFloor=min(as.numeric(RealFloor)),maxFloor=max(as.numeric(RealFloor)))  %>% left_join( RFvarImpBuilding, by="WAPS")

wifidataValRFvarImpSummarized

## # A tibble: 49 x 7
##    WAPS   meanRRSSI sdRRSSI minRRSSI maxRRSSI `n_distinct(Value)` Overall
##    <chr>      <dbl>   <dbl>    <int>    <int>               <int>   <dbl>
##  1 WAP008     -86.4    8.94      -99      -62                  17    10.6
##  2 WAP011     -76.9   13.7       -96      -45                  36    33.5
##  3 WAP014     -77.1    9.98      -97      -50                  43   433. 
##  4 WAP020     -79.1   10.5       -98      -52                  33    13.9
##  5 WAP025     -72.5   12.2       -94      -48                  38    21.6
##  6 WAP026     -72.7   12.5       -98      -50                  36    23.6
##  7 WAP034     -72.9   12.7       -96      -41                  51   273. 
##  8 WAP036     -74.4   10.9       -95      -42                  48    84.5
##  9 WAP039     -72.3   14.0       -97      -44                  48    77.7
## 10 WAP041     -73.1   10.4       -95      -40                  43    92.1
## # … with 39 more rows
…
